<svg ng-width="{{ game.wordToGuess.length*50 + 50 }}" height="50" xmlns="http://www.w3.org/2000/svg">
 <!-- Created with SVG-edit - http://svg-edit.googlecode.com/ -->
 <g ng-repeat="letter in game.wordToGuess track by $index">
  <title>Letter {{ $index + 1 }}</title>
  <line id="svg_1" y2="41" x2="0" ng-x2="{{ ($index+1)*50 + 46 }}" y1="41" x1="0" ng-x1="{{ ($index+1)*50 + 4 }}" stroke-width="5" stroke="#000000" fill="none"/>
  <text font-weight="bold" xml:space="preserve" text-anchor="middle" font-family="Cursive" font-size="34" id="svg_2" y="30" ng-x="{{ ($index+1)*50 + 25 }}" stroke-width="0" stroke="#000000" fill="#000000">{{ letter }}</text>
 </g>
</svg>